%YAML 1.1
%TAG !u! tag:unity3d.com,2011:
--- !u!114 &11400000
MonoBehaviour:
  m_ObjectHideFlags: 0
  m_CorrespondingSourceObject: {fileID: 0}
  m_PrefabInstance: {fileID: 0}
  m_PrefabAsset: {fileID: 0}
  m_GameObject: {fileID: 0}
  m_Enabled: 1
  m_EditorHideFlags: 0
  m_Script: {fileID: 11500000, guid: 3ebbf95291839bf4cbf55152d672ce3d, type: 3}
  m_Name: Level 3
  m_EditorClassIdentifier: 
  handMade: 1
  pathSize: 45
  requiredCrowd: 10
  tileContainer:
  - tile: {fileID: 8465864217994963866, guid: 0f34ab54ffa456747b86b62557e1cd98, type: 3}
    crowd: {fileID: 0}
  - tile: {fileID: 8465864217994963866, guid: 0f34ab54ffa456747b86b62557e1cd98, type: 3}
    crowd: {fileID: 0}
  - tile: {fileID: 8465864217994963866, guid: 0f34ab54ffa456747b86b62557e1cd98, type: 3}
    crowd: {fileID: 11400000, guid: d95624ab778c17249b7731d318ccef9c, type: 2}
  - tile: {fileID: 1141627546115428370, guid: bbdfa382fc52e7249bd8ebd6e72e3f79, type: 3}
    crowd: {fileID: 0}
  - tile: {fileID: 8465864217994963866, guid: 0f34ab54ffa456747b86b62557e1cd98, type: 3}
    crowd: {fileID: 11400000, guid: 34def5746fb2dbf479db2efafd69425e, type: 2}
  - tile: {fileID: 8465864217994963866, guid: 0f34ab54ffa456747b86b62557e1cd98, type: 3}
    crowd: {fileID: 11400000, guid: c9b4b9832cc300f44b36f198efb9fe1e, type: 2}
  - tile: {fileID: 283530461098311255, guid: a519b80f94c6474419bc3ee9def2b9a2, type: 3}
    crowd: {fileID: 0}
  - tile: {fileID: 8465864217994963866, guid: 0f34ab54ffa456747b86b62557e1cd98, type: 3}
    crowd: {fileID: 11400000, guid: d564be820e2e90f47b41a750ea55ab65, type: 2}
  - tile: {fileID: 2833505263559314925, guid: 0470aa394d17f044e935b26c7f53c8be, type: 3}
    crowd: {fileID: 0}
  - tile: {fileID: 8465864217994963866, guid: 0f34ab54ffa456747b86b62557e1cd98, type: 3}
    crowd: {fileID: 11400000, guid: 34def5746fb2dbf479db2efafd69425e, type: 2}
  - tile: {fileID: 8465864217994963866, guid: 0f34ab54ffa456747b86b62557e1cd98, type: 3}
    crowd: {fileID: 11400000, guid: c9b4b9832cc300f44b36f198efb9fe1e, type: 2}
  - tile: {fileID: 1141627546115428370, guid: bbdfa382fc52e7249bd8ebd6e72e3f79, type: 3}
    crowd: {fileID: 0}
  - tile: {fileID: 8465864217994963866, guid: 0f34ab54ffa456747b86b62557e1cd98, type: 3}
    crowd: {fileID: 0}
  - tile: {fileID: 2833505263559314925, guid: 0470aa394d17f044e935b26c7f53c8be, type: 3}
    crowd: {fileID: 0}
  - tile: {fileID: 8465864217994963866, guid: 0f34ab54ffa456747b86b62557e1cd98, type: 3}
    crowd: {fileID: 0}
  - tile: {fileID: 8465864217994963866, guid: 0f34ab54ffa456747b86b62557e1cd98, type: 3}
    crowd: {fileID: 11400000, guid: c9b4b9832cc300f44b36f198efb9fe1e, type: 2}
  - tile: {fileID: 2833505263559314925, guid: 0470aa394d17f044e935b26c7f53c8be, type: 3}
    crowd: {fileID: 0}
  - tile: {fileID: 8465864217994963866, guid: 0f34ab54ffa456747b86b62557e1cd98, type: 3}
    crowd: {fileID: 11400000, guid: e4facd2c4fd35b542a1f0a36f9a8715b, type: 2}
  - tile: {fileID: 8465864217994963866, guid: 0f34ab54ffa456747b86b62557e1cd98, type: 3}
    crowd: {fileID: 11400000, guid: c9b4b9832cc300f44b36f198efb9fe1e, type: 2}
  - tile: {fileID: 8465864217994963866, guid: 0f34ab54ffa456747b86b62557e1cd98, type: 3}
    crowd: {fileID: 0}
  - tile: {fileID: 283530461098311255, guid: a519b80f94c6474419bc3ee9def2b9a2, type: 3}
    crowd: {fileID: 0}
  - tile: {fileID: 8465864217994963866, guid: 0f34ab54ffa456747b86b62557e1cd98, type: 3}
    crowd: {fileID: 0}
  - tile: {fileID: 2833505263559314925, guid: 0470aa394d17f044e935b26c7f53c8be, type: 3}
    crowd: {fileID: 0}
  - tile: {fileID: 8465864217994963866, guid: 0f34ab54ffa456747b86b62557e1cd98, type: 3}
    crowd: {fileID: 0}
  - tile: {fileID: 2833505263559314925, guid: 0470aa394d17f044e935b26c7f53c8be, type: 3}
    crowd: {fileID: 0}
  - tile: {fileID: 8465864217994963866, guid: 0f34ab54ffa456747b86b62557e1cd98, type: 3}
    crowd: {fileID: 0}
  - tile: {fileID: 8465864217994963866, guid: 0f34ab54ffa456747b86b62557e1cd98, type: 3}
    crowd: {fileID: 0}
  - tile: {fileID: 1141627546115428370, guid: bbdfa382fc52e7249bd8ebd6e72e3f79, type: 3}
    crowd: {fileID: 0}
  - tile: {fileID: 8465864217994963866, guid: 0f34ab54ffa456747b86b62557e1cd98, type: 3}
    crowd: {fileID: 11400000, guid: d95624ab778c17249b7731d318ccef9c, type: 2}
  - tile: {fileID: 8465864217994963866, guid: 0f34ab54ffa456747b86b62557e1cd98, type: 3}
    crowd: {fileID: 0}
  - tile: {fileID: 2833505263559314925, guid: 0470aa394d17f044e935b26c7f53c8be, type: 3}
    crowd: {fileID: 0}
  - tile: {fileID: 8465864217994963866, guid: 0f34ab54ffa456747b86b62557e1cd98, type: 3}
    crowd: {fileID: 0}
  - tile: {fileID: 2833505263559314925, guid: 0470aa394d17f044e935b26c7f53c8be, type: 3}
    crowd: {fileID: 0}
  - tile: {fileID: 8465864217994963866, guid: 0f34ab54ffa456747b86b62557e1cd98, type: 3}
    crowd: {fileID: 0}
  - tile: {fileID: 8465864217994963866, guid: 0f34ab54ffa456747b86b62557e1cd98, type: 3}
    crowd: {fileID: 11400000, guid: d95624ab778c17249b7731d318ccef9c, type: 2}
  - tile: {fileID: 1141627546115428370, guid: bbdfa382fc52e7249bd8ebd6e72e3f79, type: 3}
    crowd: {fileID: 0}
  - tile: {fileID: 8465864217994963866, guid: 0f34ab54ffa456747b86b62557e1cd98, type: 3}
    crowd: {fileID: 0}
  - tile: {fileID: 1141627546115428370, guid: bbdfa382fc52e7249bd8ebd6e72e3f79, type: 3}
    crowd: {fileID: 0}
  - tile: {fileID: 8465864217994963866, guid: 0f34ab54ffa456747b86b62557e1cd98, type: 3}
    crowd: {fileID: 11400000, guid: d95624ab778c17249b7731d318ccef9c, type: 2}
  - tile: {fileID: 1141627546115428370, guid: bbdfa382fc52e7249bd8ebd6e72e3f79, type: 3}
    crowd: {fileID: 0}
  - tile: {fileID: 8465864217994963866, guid: 0f34ab54ffa456747b86b62557e1cd98, type: 3}
    crowd: {fileID: 0}
  - tile: {fileID: 283530461098311255, guid: a519b80f94c6474419bc3ee9def2b9a2, type: 3}
    crowd: {fileID: 0}
  - tile: {fileID: 8465864217994963866, guid: 0f34ab54ffa456747b86b62557e1cd98, type: 3}
    crowd: {fileID: 0}
  - tile: {fileID: 8465864217994963866, guid: 0f34ab54ffa456747b86b62557e1cd98, type: 3}
    crowd: {fileID: 11400000, guid: c9b4b9832cc300f44b36f198efb9fe1e, type: 2}
  - tile: {fileID: 8465864217994963866, guid: 0f34ab54ffa456747b86b62557e1cd98, type: 3}
    crowd: {fileID: 0}
  pools:
  - Tile: {fileID: 6157225875109384830, guid: 0f34ab54ffa456747b86b62557e1cd98, type: 3}
    poolSize: 10
  - Tile: {fileID: 6157225875109384830, guid: 0470aa394d17f044e935b26c7f53c8be, type: 3}
    poolSize: 10
  - Tile: {fileID: 6157225875109384830, guid: bbdfa382fc52e7249bd8ebd6e72e3f79, type: 3}
    poolSize: 5
  - Tile: {fileID: 6157225875109384830, guid: a519b80f94c6474419bc3ee9def2b9a2, type: 3}
    poolSize: 3
