%YAML 1.1
%TAG !u! tag:unity3d.com,2011:
--- !u!114 &11400000
MonoBehaviour:
  m_ObjectHideFlags: 0
  m_CorrespondingSourceObject: {fileID: 0}
  m_PrefabInstance: {fileID: 0}
  m_PrefabAsset: {fileID: 0}
  m_GameObject: {fileID: 0}
  m_Enabled: 1
  m_EditorHideFlags: 0
  m_Script: {fileID: 11500000, guid: 79f1eae9b1c788a4680b8b8cf4c170a2, type: 3}
  m_Name: Crowd Group 5
  m_EditorClassIdentifier: 
  spawns:
  - spawnPosition: {x: -1.5900003, y: 0, z: 0.84000003}
    characterColor: 999
  - spawnPosition: {x: -1.03, y: 0, z: -0.56}
    characterColor: 999
  - spawnPosition: {x: -2.2600002, y: 0, z: -0.53}
    characterColor: 999
  - spawnPosition: {x: -1.7, y: 0, z: 0.03}
    characterColor: 999
  - spawnPosition: {x: 1.84, y: 0, z: 0.07000008}
    characterColor: 999
